/* XPM */
static char * size_p10_xpm[] = {
"32 16 122 2",
"  	c None",
". 	c #9B9B9B",
"+ 	c #B4B4B4",
"@ 	c #B9B9B9",
"# 	c #000000",
"$ 	c #929292",
"% 	c #ABABAB",
"& 	c #B2B2B2",
"* 	c #C0C0C0",
"= 	c #727272",
"- 	c #FFFFFF",
"; 	c #707070",
"> 	c #5D5D5D",
", 	c #747474",
"' 	c #8B8B8B",
") 	c #9C9C9C",
"! 	c #B6B6B6",
"~ 	c #BDBDBD",
"{ 	c #C4C4C4",
"] 	c #C7C7C7",
"^ 	c #636363",
"/ 	c #4E514E",
"( 	c #475947",
"_ 	c #3A7C3A",
": 	c #437243",
"< 	c #486248",
"[ 	c #B3B3B3",
"} 	c #C2C2C2",
"| 	c #C9C9C9",
"1 	c #D0D0D0",
"2 	c #8E8E8E",
"3 	c #506050",
"4 	c #338033",
"5 	c #135413",
"6 	c #375A37",
"7 	c #257125",
"8 	c #2B702B",
"9 	c #979797",
"0 	c #CDCDCD",
"a 	c #D4D4D4",
"b 	c #DADADA",
"c 	c #6E6E6E",
"d 	c #396839",
"e 	c #2C682C",
"f 	c #293B29",
"g 	c #144214",
"h 	c #436C43",
"i 	c #7D7474",
"j 	c #844444",
"k 	c #959191",
"l 	c #D9D9D9",
"m 	c #E0E0E0",
"n 	c #ADADAD",
"o 	c #757E75",
"p 	c #468C46",
"q 	c #186E18",
"r 	c #1F581F",
"s 	c #115C11",
"t 	c #385C38",
"u 	c #772A2A",
"v 	c #9C4D4D",
"w 	c #883232",
"x 	c #6A6A6A",
"y 	c #D7D7D7",
"z 	c #EBEBEB",
"A 	c #444544",
"B 	c #659065",
"C 	c #114311",
"D 	c #1C561C",
"E 	c #4A624A",
"F 	c #5F6A5F",
"G 	c #8C4747",
"H 	c #573E41",
"I 	c #815253",
"J 	c #764949",
"K 	c #F0F0F0",
"L 	c #CECECE",
"M 	c #818181",
"N 	c #858585",
"O 	c #7E5B3D",
"P 	c #A3A2A1",
"Q 	c #7A7A7A",
"R 	c #876767",
"S 	c #3A4359",
"T 	c #503239",
"U 	c #974747",
"V 	c #B8B8B8",
"W 	c #F4F4F4",
"X 	c #FBFBFB",
"Y 	c #686868",
"Z 	c #7B7B7B",
"` 	c #BABABA",
" .	c #876B53",
"..	c #8A715B",
"+.	c #CFCFCF",
"@.	c #7C5E5E",
"#.	c #8E4242",
"$.	c #9C4343",
"%.	c #8E5050",
"&.	c #877777",
"*.	c #F9F9F9",
"=.	c #FEFEFE",
"-.	c #BEBEBE",
";.	c #A4978B",
">.	c #8E6643",
",.	c #B1B0AF",
"'.	c #A7A7A7",
").	c #8A6D6D",
"!.	c #9C9595",
"~.	c #C8C8C8",
"{.	c #AAAAAA",
"].	c #666666",
"^.	c #1C1C1C",
"/.	c #A6A6A6",
"(.	c #AC9785",
"_.	c #C6C2BF",
":.	c #C3C3C3",
"<.	c #424242",
"[.	c #080808",
"}.	c #717171",
"|.	c #5F5F5F",
"1.	c #252525",
"                                                                ",
"              . + @                     #     # #               ",
"          $ % & @ * =                 # - # # - - #             ",
"  ;   > , ' ) ! ~ { ]               # - - # - # # - #           ",
"  ^ / ( _ : < [ } | 1 2             # # - # - # # - #           ",
"  3 4 5 6 7 8 ; 9 0 a b           #   # - # - # # - # #     # # ",
"  c d e f g h i j k l m n       # - # # - # - # # - # - # # - # ",
"  o p q r s t u v w x y z     # - - - # - # - # # - # # # - #   ",
"  A B C D E F G H I J a K L     # - # # - # - # # - # # - # #   ",
"    M N O P Q R S T U V W X Y     #   # - # - # # - # - # # - # ",
"    Z `  ...+.@.#.$.%.&.*.=.`         # - # - # # - # #     #   ",
"      -.;.>.,.'.).!.~.{.].^.#       # - - - # - - #             ",
"      ! /.(._.:.N <.[.# # #         # # # # # # #               ",
"      }.) |.1.# # # #                                           ",
"        # # #                                                   ",
"                                                                "};
